[gd_scene load_steps=7 format=2]

[ext_resource path="res://scripts/BCard.gd" type="Script" id=1]
[ext_resource path="res://resources/fallback200x200.png" type="Texture" id=2]
[ext_resource path="res://scripts/DebugPos.gd" type="Script" id=4]

[sub_resource type="DynamicFontData" id=2]
font_path = "res://resources/placeholders/Echotopia font/Echotopia-Regular.otf"

[sub_resource type="DynamicFont" id=3]
size = 100
use_filter = true
font_data = SubResource( 2 )

[sub_resource type="RectangleShape2D" id=1]
extents = Vector2( 100, 100 )

[node name="BCard" type="Sprite"]
texture = ExtResource( 2 )
centered = false
script = ExtResource( 1 )
value = null
suit = null
debris = null

[node name="Label" type="Label" parent="."]
anchor_right = 1.0
anchor_bottom = 1.0
grow_horizontal = 2
grow_vertical = 2
size_flags_horizontal = 3
size_flags_vertical = 3
custom_fonts/font = SubResource( 3 )
text = "0"
align = 1
valign = 1
__meta__ = {
"_edit_use_anchors_": false
}

[node name="debugpos" type="Label" parent="." groups=["debug"]]
visible = false
margin_left = 24.0
margin_top = 16.0
margin_right = 64.0
margin_bottom = 30.0
grow_horizontal = 2
grow_vertical = 2
rect_scale = Vector2( 3, 3 )
align = 3
valign = 3
script = ExtResource( 4 )
__meta__ = {
"_edit_use_anchors_": false
}

[node name="TouchTimer" type="Timer" parent="."]

[node name="Area2D" type="Area2D" parent="."]

[node name="CollisionShape2D" type="CollisionShape2D" parent="Area2D"]
position = Vector2( 100, 100 )
shape = SubResource( 1 )

[connection signal="tree_entered" from="." to="." method="_on_BCard_tree_entered"]
